Verilog/Testes4/simulation/qsim/Program_counter.msim.vcd
$comment
	File created using the following command:
		vcd file Program_counter.msim.vcd -direction
$end
$date
	Thu Jul 29 11:06:35 2021
$end
$version
	ModelSim Version 10.5b
$end
$timescale
	1ps
$end

$scope module Program_counter_vlg_vec_tst $end
$var reg 32 ! addrin [31:0] $end
$var reg 1 " clk $end
$var reg 1 # inta $end
$var reg 1 $ reset $end
$var wire 1 % addrBckp [31] $end
$var wire 1 & addrBckp [30] $end
$var wire 1 ' addrBckp [29] $end
$var wire 1 ( addrBckp [28] $end
$var wire 1 ) addrBckp [27] $end
$var wire 1 * addrBckp [26] $end
$var wire 1 + addrBckp [25] $end
$var wire 1 , addrBckp [24] $end
$var wire 1 - addrBckp [23] $end
$var wire 1 . addrBckp [22] $end
$var wire 1 / addrBckp [21] $end
$var wire 1 0 addrBckp [20] $end
$var wire 1 1 addrBckp [19] $end
$var wire 1 2 addrBckp [18] $end
$var wire 1 3 addrBckp [17] $end
$var wire 1 4 addrBckp [16] $end
$var wire 1 5 addrBckp [15] $end
$var wire 1 6 addrBckp [14] $end
$var wire 1 7 addrBckp [13] $end
$var wire 1 8 addrBckp [12] $end
$var wire 1 9 addrBckp [11] $end
$var wire 1 : addrBckp [10] $end
$var wire 1 ; addrBckp [9] $end
$var wire 1 < addrBckp [8] $end
$var wire 1 = addrBckp [7] $end
$var wire 1 > addrBckp [6] $end
$var wire 1 ? addrBckp [5] $end
$var wire 1 @ addrBckp [4] $end
$var wire 1 A addrBckp [3] $end
$var wire 1 B addrBckp [2] $end
$var wire 1 C addrBckp [1] $end
$var wire 1 D addrBckp [0] $end
$var wire 1 E addrout [31] $end
$var wire 1 F addrout [30] $end
$var wire 1 G addrout [29] $end
$var wire 1 H addrout [28] $end
$var wire 1 I addrout [27] $end
$var wire 1 J addrout [26] $end
$var wire 1 K addrout [25] $end
$var wire 1 L addrout [24] $end
$var wire 1 M addrout [23] $end
$var wire 1 N addrout [22] $end
$var wire 1 O addrout [21] $end
$var wire 1 P addrout [20] $end
$var wire 1 Q addrout [19] $end
$var wire 1 R addrout [18] $end
$var wire 1 S addrout [17] $end
$var wire 1 T addrout [16] $end
$var wire 1 U addrout [15] $end
$var wire 1 V addrout [14] $end
$var wire 1 W addrout [13] $end
$var wire 1 X addrout [12] $end
$var wire 1 Y addrout [11] $end
$var wire 1 Z addrout [10] $end
$var wire 1 [ addrout [9] $end
$var wire 1 \ addrout [8] $end
$var wire 1 ] addrout [7] $end
$var wire 1 ^ addrout [6] $end
$var wire 1 _ addrout [5] $end
$var wire 1 ` addrout [4] $end
$var wire 1 a addrout [3] $end
$var wire 1 b addrout [2] $end
$var wire 1 c addrout [1] $end
$var wire 1 d addrout [0] $end

$scope module i1 $end
$var wire 1 e gnd $end
$var wire 1 f vcc $end
$var wire 1 g unknown $end
$var tri1 1 h devclrn $end
$var tri1 1 i devpor $end
$var tri1 1 j devoe $end
$var wire 1 k addrout[0]~output_o $end
$var wire 1 l addrout[1]~output_o $end
$var wire 1 m addrout[2]~output_o $end
$var wire 1 n addrout[3]~output_o $end
$var wire 1 o addrout[4]~output_o $end
$var wire 1 p addrout[5]~output_o $end
$var wire 1 q addrout[6]~output_o $end
$var wire 1 r addrout[7]~output_o $end
$var wire 1 s addrout[8]~output_o $end
$var wire 1 t addrout[9]~output_o $end
$var wire 1 u addrout[10]~output_o $end
$var wire 1 v addrout[11]~output_o $end
$var wire 1 w addrout[12]~output_o $end
$var wire 1 x addrout[13]~output_o $end
$var wire 1 y addrout[14]~output_o $end
$var wire 1 z addrout[15]~output_o $end
$var wire 1 { addrout[16]~output_o $end
$var wire 1 | addrout[17]~output_o $end
$var wire 1 } addrout[18]~output_o $end
$var wire 1 ~ addrout[19]~output_o $end
$var wire 1 !! addrout[20]~output_o $end
$var wire 1 "! addrout[21]~output_o $end
$var wire 1 #! addrout[22]~output_o $end
$var wire 1 $! addrout[23]~output_o $end
$var wire 1 %! addrout[24]~output_o $end
$var wire 1 &! addrout[25]~output_o $end
$var wire 1 '! addrout[26]~output_o $end
$var wire 1 (! addrout[27]~output_o $end
$var wire 1 )! addrout[28]~output_o $end
$var wire 1 *! addrout[29]~output_o $end
$var wire 1 +! addrout[30]~output_o $end
$var wire 1 ,! addrout[31]~output_o $end
$var wire 1 -! addrBckp[0]~output_o $end
$var wire 1 .! addrBckp[1]~output_o $end
$var wire 1 /! addrBckp[2]~output_o $end
$var wire 1 0! addrBckp[3]~output_o $end
$var wire 1 1! addrBckp[4]~output_o $end
$var wire 1 2! addrBckp[5]~output_o $end
$var wire 1 3! addrBckp[6]~output_o $end
$var wire 1 4! addrBckp[7]~output_o $end
$var wire 1 5! addrBckp[8]~output_o $end
$var wire 1 6! addrBckp[9]~output_o $end
$var wire 1 7! addrBckp[10]~output_o $end
$var wire 1 8! addrBckp[11]~output_o $end
$var wire 1 9! addrBckp[12]~output_o $end
$var wire 1 :! addrBckp[13]~output_o $end
$var wire 1 ;! addrBckp[14]~output_o $end
$var wire 1 <! addrBckp[15]~output_o $end
$var wire 1 =! addrBckp[16]~output_o $end
$var wire 1 >! addrBckp[17]~output_o $end
$var wire 1 ?! addrBckp[18]~output_o $end
$var wire 1 @! addrBckp[19]~output_o $end
$var wire 1 A! addrBckp[20]~output_o $end
$var wire 1 B! addrBckp[21]~output_o $end
$var wire 1 C! addrBckp[22]~output_o $end
$var wire 1 D! addrBckp[23]~output_o $end
$var wire 1 E! addrBckp[24]~output_o $end
$var wire 1 F! addrBckp[25]~output_o $end
$var wire 1 G! addrBckp[26]~output_o $end
$var wire 1 H! addrBckp[27]~output_o $end
$var wire 1 I! addrBckp[28]~output_o $end
$var wire 1 J! addrBckp[29]~output_o $end
$var wire 1 K! addrBckp[30]~output_o $end
$var wire 1 L! addrBckp[31]~output_o $end
$var wire 1 M! clk~input_o $end
$var wire 1 N! addrin[0]~input_o $end
$var wire 1 O! reset~input_o $end
$var wire 1 P! inta~input_o $end
$var wire 1 Q! addrout~0_combout $end
$var wire 1 R! addrout[0]~reg0_q $end
$var wire 1 S! addrin[1]~input_o $end
$var wire 1 T! addrout~1_combout $end
$var wire 1 U! addrout[1]~reg0_q $end
$var wire 1 V! addrin[2]~input_o $end
$var wire 1 W! addrout~2_combout $end
$var wire 1 X! addrout[2]~reg0_q $end
$var wire 1 Y! addrin[3]~input_o $end
$var wire 1 Z! addrout~3_combout $end
$var wire 1 [! addrout[3]~reg0_q $end
$var wire 1 \! addrin[4]~input_o $end
$var wire 1 ]! addrout~4_combout $end
$var wire 1 ^! addrout[4]~reg0_q $end
$var wire 1 _! addrin[5]~input_o $end
$var wire 1 `! addrout~5_combout $end
$var wire 1 a! addrout[5]~reg0_q $end
$var wire 1 b! addrin[6]~input_o $end
$var wire 1 c! addrout~6_combout $end
$var wire 1 d! addrout[6]~reg0_q $end
$var wire 1 e! addrin[7]~input_o $end
$var wire 1 f! addrout~7_combout $end
$var wire 1 g! addrout[7]~reg0_q $end
$var wire 1 h! addrin[8]~input_o $end
$var wire 1 i! addrout~8_combout $end
$var wire 1 j! addrout[8]~reg0_q $end
$var wire 1 k! addrin[9]~input_o $end
$var wire 1 l! addrout~9_combout $end
$var wire 1 m! addrout[9]~reg0_q $end
$var wire 1 n! addrin[10]~input_o $end
$var wire 1 o! addrout~10_combout $end
$var wire 1 p! addrout[10]~reg0_q $end
$var wire 1 q! addrin[11]~input_o $end
$var wire 1 r! addrout~11_combout $end
$var wire 1 s! addrout[11]~reg0_q $end
$var wire 1 t! addrin[12]~input_o $end
$var wire 1 u! addrout~12_combout $end
$var wire 1 v! addrout[12]~reg0_q $end
$var wire 1 w! addrin[13]~input_o $end
$var wire 1 x! addrout~13_combout $end
$var wire 1 y! addrout[13]~reg0_q $end
$var wire 1 z! addrin[14]~input_o $end
$var wire 1 {! addrout~14_combout $end
$var wire 1 |! addrout[14]~reg0_q $end
$var wire 1 }! addrin[15]~input_o $end
$var wire 1 ~! addrout~15_combout $end
$var wire 1 !" addrout[15]~reg0_q $end
$var wire 1 "" addrin[16]~input_o $end
$var wire 1 #" addrout~16_combout $end
$var wire 1 $" addrout[16]~reg0_q $end
$var wire 1 %" addrin[17]~input_o $end
$var wire 1 &" addrout~17_combout $end
$var wire 1 '" addrout[17]~reg0_q $end
$var wire 1 (" addrin[18]~input_o $end
$var wire 1 )" addrout~18_combout $end
$var wire 1 *" addrout[18]~reg0_q $end
$var wire 1 +" addrin[19]~input_o $end
$var wire 1 ," addrout~19_combout $end
$var wire 1 -" addrout[19]~reg0_q $end
$var wire 1 ." addrin[20]~input_o $end
$var wire 1 /" addrout~20_combout $end
$var wire 1 0" addrout[20]~reg0_q $end
$var wire 1 1" addrin[21]~input_o $end
$var wire 1 2" addrout~21_combout $end
$var wire 1 3" addrout[21]~reg0_q $end
$var wire 1 4" addrin[22]~input_o $end
$var wire 1 5" addrout~22_combout $end
$var wire 1 6" addrout[22]~reg0_q $end
$var wire 1 7" addrin[23]~input_o $end
$var wire 1 8" addrout~23_combout $end
$var wire 1 9" addrout[23]~reg0_q $end
$var wire 1 :" addrin[24]~input_o $end
$var wire 1 ;" addrout~24_combout $end
$var wire 1 <" addrout[24]~reg0_q $end
$var wire 1 =" addrin[25]~input_o $end
$var wire 1 >" addrout~25_combout $end
$var wire 1 ?" addrout[25]~reg0_q $end
$var wire 1 @" addrin[26]~input_o $end
$var wire 1 A" addrout~26_combout $end
$var wire 1 B" addrout[26]~reg0_q $end
$var wire 1 C" addrin[27]~input_o $end
$var wire 1 D" addrout~27_combout $end
$var wire 1 E" addrout[27]~reg0_q $end
$var wire 1 F" addrin[28]~input_o $end
$var wire 1 G" addrout~28_combout $end
$var wire 1 H" addrout[28]~reg0_q $end
$var wire 1 I" addrin[29]~input_o $end
$var wire 1 J" addrout~29_combout $end
$var wire 1 K" addrout[29]~reg0_q $end
$var wire 1 L" addrin[30]~input_o $end
$var wire 1 M" addrout~30_combout $end
$var wire 1 N" addrout[30]~reg0_q $end
$var wire 1 O" addrin[31]~input_o $end
$var wire 1 P" addrout~31_combout $end
$var wire 1 Q" addrout[31]~reg0_q $end
$var wire 1 R" addrBckp[0]~reg0_q $end
$var wire 1 S" addrBckp[1]~reg0_q $end
$var wire 1 T" addrBckp[2]~reg0_q $end
$var wire 1 U" addrBckp[3]~reg0_q $end
$var wire 1 V" addrBckp[4]~reg0_q $end
$var wire 1 W" addrBckp[5]~reg0_q $end
$var wire 1 X" addrBckp[6]~reg0_q $end
$var wire 1 Y" addrBckp[7]~reg0_q $end
$var wire 1 Z" addrBckp[8]~reg0_q $end
$var wire 1 [" addrBckp[9]~reg0_q $end
$var wire 1 \" addrBckp[10]~reg0_q $end
$var wire 1 ]" addrBckp[11]~reg0_q $end
$var wire 1 ^" addrBckp[12]~reg0_q $end
$var wire 1 _" addrBckp[13]~reg0_q $end
$var wire 1 `" addrBckp[14]~reg0_q $end
$var wire 1 a" addrBckp[15]~reg0_q $end
$var wire 1 b" addrBckp[16]~reg0_q $end
$var wire 1 c" addrBckp[17]~reg0_q $end
$var wire 1 d" addrBckp[18]~reg0_q $end
$var wire 1 e" addrBckp[19]~reg0_q $end
$var wire 1 f" addrBckp[20]~reg0_q $end
$var wire 1 g" addrBckp[21]~reg0_q $end
$var wire 1 h" addrBckp[22]~reg0_q $end
$var wire 1 i" addrBckp[23]~reg0_q $end
$var wire 1 j" addrBckp[24]~reg0_q $end
$var wire 1 k" addrBckp[25]~reg0_q $end
$var wire 1 l" addrBckp[26]~reg0_q $end
$var wire 1 m" addrBckp[27]~reg0_q $end
$var wire 1 n" addrBckp[28]~reg0_q $end
$var wire 1 o" addrBckp[29]~reg0_q $end
$var wire 1 p" addrBckp[30]~reg0_q $end
$var wire 1 q" addrBckp[31]~reg0_q $end
$upscope $end
$upscope $end
$enddefinitions $end
#0
$dumpvars
b0 !
0"
1#
0$
0D
0C
0B
0A
0@
0?
0>
0=
0<
0;
0:
09
08
07
06
05
04
03
02
01
00
0/
0.
0-
0,
0+
0*
0)
0(
0'
0&
0%
0d
0c
0b
0a
0`
0_
0^
0]
0\
0[
0Z
0Y
0X
0W
0V
0U
0T
0S
0R
0Q
0P
0O
0N
0M
0L
0K
0J
0I
0H
0G
0F
0E
0e
1f
xg
1h
1i
1j
0k
0l
0m
0n
0o
0p
0q
0r
0s
0t
0u
0v
0w
0x
0y
0z
0{
0|
0}
0~
0!!
0"!
0#!
0$!
0%!
0&!
0'!
0(!
0)!
0*!
0+!
0,!
0-!
0.!
0/!
00!
01!
02!
03!
04!
05!
06!
07!
08!
09!
0:!
0;!
0<!
0=!
0>!
0?!
0@!
0A!
0B!
0C!
0D!
0E!
0F!
0G!
0H!
0I!
0J!
0K!
0L!
0M!
0N!
0O!
1P!
0Q!
0R!
0S!
0T!
0U!
0V!
0W!
0X!
0Y!
0Z!
0[!
0\!
0]!
0^!
0_!
0`!
0a!
0b!
0c!
0d!
0e!
0f!
0g!
0h!
0i!
0j!
0k!
0l!
0m!
0n!
0o!
0p!
0q!
0r!
0s!
0t!
0u!
0v!
0w!
0x!
0y!
0z!
0{!
0|!
0}!
0~!
0!"
0""
0#"
0$"
0%"
0&"
0'"
0("
0)"
0*"
0+"
0,"
0-"
0."
0/"
00"
01"
02"
03"
04"
05"
06"
07"
08"
09"
0:"
0;"
0<"
0="
0>"
0?"
0@"
0A"
0B"
0C"
0D"
0E"
0F"
0G"
0H"
0I"
0J"
0K"
0L"
0M"
0N"
0O"
0P"
0Q"
0R"
0S"
0T"
0U"
0V"
0W"
0X"
0Y"
0Z"
0["
0\"
0]"
0^"
0_"
0`"
0a"
0b"
0c"
0d"
0e"
0f"
0g"
0h"
0i"
0j"
0k"
0l"
0m"
0n"
0o"
0p"
0q"
$end
#20000
1"
1M!
#40000
0"
0M!
#60000
1"
1M!
#80000
0"
0M!
#100000
1"
1M!
#120000
0"
0M!
#140000
1"
1M!
#160000
b1 !
0"
1N!
0M!
#180000
1"
1M!
#200000
0"
0M!
#220000
1"
1M!
#240000
0"
0M!
#260000
1"
1M!
#280000
0"
0M!
#300000
1"
1M!
#320000
b11 !
b10 !
0"
0N!
1S!
0M!
#340000
1"
1M!
#360000
0"
0M!
#380000
1"
1M!
#400000
0"
0M!
#420000
1"
1M!
#440000
0"
0M!
#460000
1"
1M!
#480000
b11 !
0"
1N!
0M!
#500000
1"
1M!
#520000
0"
0M!
#540000
1"
1M!
#560000
0"
0M!
#580000
1"
1M!
#600000
0"
0M!
#620000
1"
1M!
#640000
b111 !
b101 !
b100 !
0"
0N!
0S!
1V!
0M!
#660000
1"
1M!
#680000
0"
0M!
#700000
1"
1M!
#720000
0"
0M!
#740000
1"
1M!
#760000
0"
0M!
#780000
1"
1M!
#800000
b101 !
0"
1N!
0M!
#820000
1"
1M!
#840000
0"
0M!
#860000
1"
1M!
#880000
0"
0M!
#900000
1"
1M!
#920000
0"
0M!
#940000
1"
1M!
#960000
b111 !
b110 !
0"
0N!
1S!
0M!
#980000
1"
1M!
