Verilog/Testes1/simulation/qsim/Mem_instr.msim.vcd
$comment
	File created using the following command:
		vcd file Mem_instr.msim.vcd -direction
$end
$date
	Thu Jul 29 12:05:34 2021
$end
$version
	ModelSim Version 10.5b
$end
$timescale
	1ps
$end

$scope module Mem_instr_vlg_vec_tst $end
$var reg 32 ! addr [31:0] $end
$var reg 1 " clk $end
$var wire 1 # q [31] $end
$var wire 1 $ q [30] $end
$var wire 1 % q [29] $end
$var wire 1 & q [28] $end
$var wire 1 ' q [27] $end
$var wire 1 ( q [26] $end
$var wire 1 ) q [25] $end
$var wire 1 * q [24] $end
$var wire 1 + q [23] $end
$var wire 1 , q [22] $end
$var wire 1 - q [21] $end
$var wire 1 . q [20] $end
$var wire 1 / q [19] $end
$var wire 1 0 q [18] $end
$var wire 1 1 q [17] $end
$var wire 1 2 q [16] $end
$var wire 1 3 q [15] $end
$var wire 1 4 q [14] $end
$var wire 1 5 q [13] $end
$var wire 1 6 q [12] $end
$var wire 1 7 q [11] $end
$var wire 1 8 q [10] $end
$var wire 1 9 q [9] $end
$var wire 1 : q [8] $end
$var wire 1 ; q [7] $end
$var wire 1 < q [6] $end
$var wire 1 = q [5] $end
$var wire 1 > q [4] $end
$var wire 1 ? q [3] $end
$var wire 1 @ q [2] $end
$var wire 1 A q [1] $end
$var wire 1 B q [0] $end

$scope module i1 $end
$var wire 1 C gnd $end
$var wire 1 D vcc $end
$var wire 1 E unknown $end
$var tri1 1 F devclrn $end
$var tri1 1 G devpor $end
$var tri1 1 H devoe $end
$var wire 1 I addr[1]~input_o $end
$var wire 1 J addr[2]~input_o $end
$var wire 1 K addr[3]~input_o $end
$var wire 1 L addr[4]~input_o $end
$var wire 1 M addr[5]~input_o $end
$var wire 1 N addr[6]~input_o $end
$var wire 1 O addr[7]~input_o $end
$var wire 1 P addr[8]~input_o $end
$var wire 1 Q addr[9]~input_o $end
$var wire 1 R addr[10]~input_o $end
$var wire 1 S addr[11]~input_o $end
$var wire 1 T addr[12]~input_o $end
$var wire 1 U addr[13]~input_o $end
$var wire 1 V addr[14]~input_o $end
$var wire 1 W addr[15]~input_o $end
$var wire 1 X addr[16]~input_o $end
$var wire 1 Y addr[17]~input_o $end
$var wire 1 Z addr[18]~input_o $end
$var wire 1 [ addr[19]~input_o $end
$var wire 1 \ addr[20]~input_o $end
$var wire 1 ] addr[21]~input_o $end
$var wire 1 ^ addr[22]~input_o $end
$var wire 1 _ addr[23]~input_o $end
$var wire 1 ` addr[24]~input_o $end
$var wire 1 a addr[25]~input_o $end
$var wire 1 b addr[26]~input_o $end
$var wire 1 c addr[27]~input_o $end
$var wire 1 d addr[28]~input_o $end
$var wire 1 e addr[29]~input_o $end
$var wire 1 f addr[30]~input_o $end
$var wire 1 g addr[31]~input_o $end
$var wire 1 h q[0]~output_o $end
$var wire 1 i q[1]~output_o $end
$var wire 1 j q[2]~output_o $end
$var wire 1 k q[3]~output_o $end
$var wire 1 l q[4]~output_o $end
$var wire 1 m q[5]~output_o $end
$var wire 1 n q[6]~output_o $end
$var wire 1 o q[7]~output_o $end
$var wire 1 p q[8]~output_o $end
$var wire 1 q q[9]~output_o $end
$var wire 1 r q[10]~output_o $end
$var wire 1 s q[11]~output_o $end
$var wire 1 t q[12]~output_o $end
$var wire 1 u q[13]~output_o $end
$var wire 1 v q[14]~output_o $end
$var wire 1 w q[15]~output_o $end
$var wire 1 x q[16]~output_o $end
$var wire 1 y q[17]~output_o $end
$var wire 1 z q[18]~output_o $end
$var wire 1 { q[19]~output_o $end
$var wire 1 | q[20]~output_o $end
$var wire 1 } q[21]~output_o $end
$var wire 1 ~ q[22]~output_o $end
$var wire 1 !! q[23]~output_o $end
$var wire 1 "! q[24]~output_o $end
$var wire 1 #! q[25]~output_o $end
$var wire 1 $! q[26]~output_o $end
$var wire 1 %! q[27]~output_o $end
$var wire 1 &! q[28]~output_o $end
$var wire 1 '! q[29]~output_o $end
$var wire 1 (! q[30]~output_o $end
$var wire 1 )! q[31]~output_o $end
$var wire 1 *! clk~input_o $end
$var wire 1 +! addr[0]~input_o $end
$var wire 1 ,! q[0]~reg0_q $end
$var wire 1 -! q[30]~reg0_q $end
$upscope $end
$upscope $end
$enddefinitions $end
#0
$dumpvars
b0 !
0"
0B
1A
1@
1?
1>
0=
0<
0;
0:
19
18
07
16
15
14
03
02
01
00
0/
0.
0-
0,
1+
0*
1)
0(
0'
1&
0%
0$
1#
0C
1D
xE
1F
1G
1H
0I
0J
0K
0L
0M
0N
0O
0P
0Q
0R
0S
0T
0U
0V
0W
0X
0Y
0Z
0[
0\
0]
0^
0_
0`
0a
0b
0c
0d
0e
0f
0g
0h
1i
1j
1k
1l
0m
0n
0o
0p
1q
1r
0s
1t
1u
1v
0w
0x
0y
0z
0{
0|
0}
0~
1!!
0"!
1#!
0$!
0%!
1&!
0'!
0(!
1)!
0*!
0+!
0,!
0-!
$end
#20000
1"
1*!
#40000
0"
0*!
#60000
1"
1*!
#80000
0"
0*!
#100000
1"
1*!
#120000
0"
0*!
#140000
1"
1*!
#160000
b1 !
0"
1+!
0*!
#180000
1"
1*!
1-!
1,!
1h
1(!
1$
1B
#200000
0"
0*!
#220000
1"
1*!
#240000
0"
0*!
#260000
1"
1*!
#280000
0"
0*!
#300000
1"
1*!
#320000
b11 !
b10 !
0"
1I
0+!
0*!
#340000
1"
1*!
0-!
0,!
0h
0(!
0$
0B
#360000
0"
0*!
#380000
1"
1*!
#400000
0"
0*!
#420000
1"
1*!
#440000
0"
0*!
#460000
1"
1*!
#480000
b11 !
0"
1+!
0*!
#500000
1"
1*!
1-!
1,!
1h
1(!
1$
1B
#520000
0"
0*!
#540000
1"
1*!
#560000
0"
0*!
#580000
1"
1*!
#600000
0"
0*!
#620000
1"
1*!
#640000
b111 !
b101 !
b100 !
0"
0I
1J
0+!
0*!
#660000
1"
1*!
0-!
0,!
0h
0(!
0$
0B
#680000
0"
0*!
#700000
1"
1*!
#720000
0"
0*!
#740000
1"
1*!
#760000
0"
0*!
#780000
1"
1*!
#800000
b101 !
0"
1+!
0*!
#820000
1"
1*!
1-!
1,!
1h
1(!
1$
1B
#840000
0"
0*!
#860000
1"
1*!
#880000
0"
0*!
#900000
1"
1*!
#920000
0"
0*!
#940000
1"
1*!
#960000
b111 !
b110 !
0"
1I
0+!
0*!
#980000
1"
1*!
0-!
0,!
0h
0(!
0$
0B
